{
  "api": "web",
  "config_datetime_update": "2021-10-22T10:29:22.153311Z",
  "datetime_update": "2021-10-22T10:29:22.153311Z",
  "dict_datetime_update": "2021-10-21T07:28:30.981401Z",
  "filter_update": {
    "category": "2021-09-06T09:46:49.761324Z",
    "provider": "2021-06-16T10:05:05.126012Z",
    "instructor": "2021-08-30T02:20:27.197950Z"
  },
  "next": 2,
  "next_url": "https://develop.conicle.co/api/ugc/flash-card/?page=2",
  "previous": null,
  "previous_url": null,
  "count": 167,
  "page_size": 24,
  "results": [
    {
      "id": 167,
      "code": "CARD00137",
      "image": "https://develop.conicle.co/media/flash_card/2021/10/5abf5d07-f46.png",
      "name": "Untitled - 01",
      "desc": null,
      "content_type": {
        "id": 379,
        "code": "flashcard.flashcard"
      },
      "tag_list": [],
      "instructor_list": null,
      "category": null,
      "provider": null,
      "datetime_create": "2021-10-22T11:31:54.153901+07:00",
      "datetime_update": "2021-10-22T11:31:54.153945+07:00",
      "datetime_publish": null,
      "created_by": {
        "id": 1,
        "name": " None ",
        "image": null
      },
      "label": null,
      "is_display": false,
      "count_view": 0,
      "datetime_update_material": null,
      "progress": null
    },
    {
      "id": 166,
      "code": "CARD00136",
      "image": "https://develop.conicle.co/media/flash_card/2021/10/0b2bd6c8-bd7.png",
      "name": "Untitled - 01",
      "desc": null,
      "content_type": {
        "id": 379,
        "code": "flashcard.flashcard"
      },
      "tag_list": [],
      "instructor_list": null,
      "category": null,
      "provider": null,
      "datetime_create": "2021-10-22T11:26:50.137525+07:00",
      "datetime_update": "2021-10-22T11:26:50.137562+07:00",
      "datetime_publish": null,
      "created_by": {
        "id": 1,
        "name": " None ",
        "image": null
      },
      "label": null,
      "is_display": false,
      "count_view": 0,
      "datetime_update_material": null,
      "progress": null
    },
    {
      "id": 165,
      "code": "CARD00135",
      "image": "https://develop.conicle.co/media/flash_card/2021/10/e49105c8-39e.png",
      "name": "Untitled - 01",
      "desc": null,
      "content_type": {
        "id": 379,
        "code": "flashcard.flashcard"
      },
      "tag_list": [],
      "instructor_list": null,
      "category": null,
      "provider": null,
      "datetime_create": "2021-10-22T11:13:01.536385+07:00",
      "datetime_update": "2021-10-22T11:13:01.536432+07:00",
      "datetime_publish": null,
      "created_by": {
        "id": 1,
        "name": " None ",
        "image": null
      },
      "label": null,
      "is_display": false,
      "count_view": 0,
      "datetime_update_material": null,
      "progress": null
    },
    {
      "id": 164,
      "code": "CARD00134",
      "image": "https://develop.conicle.co/media/flash_card/2021/10/b123a1e4-cae.png",
      "name": "Untitled - 01",
      "desc": null,
      "content_type": {
        "id": 379,
        "code": "flashcard.flashcard"
      },
      "tag_list": [],
      "instructor_list": null,
      "category": null,
      "provider": null,
      "datetime_create": "2021-10-22T11:08:58.262354+07:00",
      "datetime_update": "2021-10-22T11:08:58.262399+07:00",
      "datetime_publish": null,
      "created_by": {
        "id": 1,
        "name": " None ",
        "image": null
      },
      "label": null,
      "is_display": false,
      "count_view": 0,
      "datetime_update_material": null,
      "progress": null
    },
    {
      "id": 163,
      "code": "CARD00133",
      "image": "https://develop.conicle.co/media/flash_card/2021/10/e31b9e89-ecb.png",
      "name": "Untitled - 01",
      "desc": null,
      "content_type": {
        "id": 379,
        "code": "flashcard.flashcard"
      },
      "tag_list": [],
      "instructor_list": null,
      "category": null,
      "provider": null,
      "datetime_create": "2021-10-22T10:51:53.785765+07:00",
      "datetime_update": "2021-10-22T10:51:53.785800+07:00",
      "datetime_publish": null,
      "created_by": {
        "id": 1,
        "name": " None ",
        "image": null
      },
      "label": null,
      "is_display": false,
      "count_view": 0,
      "datetime_update_material": null,
      "progress": null
    },
    {
      "id": 162,
      "code": "CARD00132",
      "image": "https://develop.conicle.co/media/flash_card/2021/10/a0dba1d7-6bb.png",
      "name": "Untitled - 01",
      "desc": null,
      "content_type": {
        "id": 379,
        "code": "flashcard.flashcard"
      },
      "tag_list": [],
      "instructor_list": null,
      "category": null,
      "provider": null,
      "datetime_create": "2021-10-22T10:40:12.129402+07:00",
      "datetime_update": "2021-10-22T10:40:12.129455+07:00",
      "datetime_publish": null,
      "created_by": {
        "id": 1,
        "name": " None ",
        "image": null
      },
      "label": null,
      "is_display": false,
      "count_view": 0,
      "datetime_update_material": null,
      "progress": null
    },
    {
      "id": 161,
      "code": "CARD00131",
      "image": "https://develop.conicle.co/media/flash_card/2021/10/fb5f961f-37c.png",
      "name": "Untitled - 01",
      "desc": null,
      "content_type": {
        "id": 379,
        "code": "flashcard.flashcard"
      },
      "tag_list": [],
      "instructor_list": null,
      "category": null,
      "provider": null,
      "datetime_create": "2021-10-22T10:31:27.302679+07:00",
      "datetime_update": "2021-10-22T10:31:27.302718+07:00",
      "datetime_publish": null,
      "created_by": {
        "id": 1,
        "name": " None ",
        "image": null
      },
      "label": null,
      "is_display": false,
      "count_view": 0,
      "datetime_update_material": null,
      "progress": null
    },
    {
      "id": 160,
      "code": "CARD00130",
      "image": "https://develop.conicle.co/media/flash_card/2021/10/b233c8c9-50a.png",
      "name": "Untitled - 01",
      "desc": null,
      "content_type": {
        "id": 379,
        "code": "flashcard.flashcard"
      },
      "tag_list": [],
      "instructor_list": null,
      "category": null,
      "provider": null,
      "datetime_create": "2021-10-21T22:14:27.602703+07:00",
      "datetime_update": "2021-10-21T22:14:27.602736+07:00",
      "datetime_publish": null,
      "created_by": {
        "id": 1,
        "name": " None ",
        "image": null
      },
      "label": null,
      "is_display": false,
      "count_view": 0,
      "datetime_update_material": null,
      "progress": null
    },
    {
      "id": 159,
      "code": "CARD00129",
      "image": "https://develop.conicle.co/media/flash_card/2021/10/fbabd35c-960.png",
      "name": "Untitled - 01",
      "desc": null,
      "content_type": {
        "id": 379,
        "code": "flashcard.flashcard"
      },
      "tag_list": [],
      "instructor_list": null,
      "category": null,
      "provider": null,
      "datetime_create": "2021-10-21T22:05:50.755648+07:00",
      "datetime_update": "2021-10-21T22:05:50.755685+07:00",
      "datetime_publish": null,
      "created_by": {
        "id": 1,
        "name": " None ",
        "image": null
      },
      "label": null,
      "is_display": false,
      "count_view": 0,
      "datetime_update_material": null,
      "progress": null
    },
    {
      "id": 158,
      "code": "CARD00128",
      "image": "https://develop.conicle.co/media/flash_card/2021/10/72156b26-39b.png",
      "name": "Untitled - 01",
      "desc": null,
      "content_type": {
        "id": 379,
        "code": "flashcard.flashcard"
      },
      "tag_list": [],
      "instructor_list": null,
      "category": null,
      "provider": null,
      "datetime_create": "2021-10-21T21:49:31.035715+07:00",
      "datetime_update": "2021-10-21T21:49:31.035746+07:00",
      "datetime_publish": null,
      "created_by": {
        "id": 1,
        "name": " None ",
        "image": null
      },
      "label": null,
      "is_display": false,
      "count_view": 0,
      "datetime_update_material": null,
      "progress": null
    },
    {
      "id": 157,
      "code": "CARD00127",
      "image": "https://develop.conicle.co/media/flash_card/2021/10/6e90df79-79a.png",
      "name": "Untitled - 01",
      "desc": null,
      "content_type": {
        "id": 379,
        "code": "flashcard.flashcard"
      },
      "tag_list": [],
      "instructor_list": null,
      "category": null,
      "provider": null,
      "datetime_create": "2021-10-21T21:36:21.821922+07:00",
      "datetime_update": "2021-10-21T21:36:21.821959+07:00",
      "datetime_publish": null,
      "created_by": {
        "id": 1,
        "name": " None ",
        "image": null
      },
      "label": null,
      "is_display": false,
      "count_view": 0,
      "datetime_update_material": null,
      "progress": null
    },
    {
      "id": 156,
      "code": "CARD00126",
      "image": "https://develop.conicle.co/media/flash_card/2021/10/264d5dcb-cb7.png",
      "name": "Untitled - 01",
      "desc": null,
      "content_type": {
        "id": 379,
        "code": "flashcard.flashcard"
      },
      "tag_list": [],
      "instructor_list": null,
      "category": null,
      "provider": null,
      "datetime_create": "2021-10-21T21:36:21.644965+07:00",
      "datetime_update": "2021-10-21T21:36:21.645003+07:00",
      "datetime_publish": null,
      "created_by": {
        "id": 1,
        "name": " None ",
        "image": null
      },
      "label": null,
      "is_display": false,
      "count_view": 0,
      "datetime_update_material": null,
      "progress": null
    },
    {
      "id": 155,
      "code": "CARD00125",
      "image": "https://develop.conicle.co/media/flash_card/2021/10/5c3269ec-c00.png",
      "name": "Untitled - 01",
      "desc": null,
      "content_type": {
        "id": 379,
        "code": "flashcard.flashcard"
      },
      "tag_list": [],
      "instructor_list": null,
      "category": null,
      "provider": null,
      "datetime_create": "2021-10-21T21:30:00.909872+07:00",
      "datetime_update": "2021-10-21T21:30:00.909911+07:00",
      "datetime_publish": null,
      "created_by": {
        "id": 1,
        "name": " None ",
        "image": null
      },
      "label": null,
      "is_display": false,
      "count_view": 0,
      "datetime_update_material": null,
      "progress": null
    },
    {
      "id": 154,
      "code": "CARD00124",
      "image": "https://develop.conicle.co/media/flash_card/2021/10/a7faf697-6e2.png",
      "name": "Untitled - 01",
      "desc": null,
      "content_type": {
        "id": 379,
        "code": "flashcard.flashcard"
      },
      "tag_list": [],
      "instructor_list": null,
      "category": null,
      "provider": null,
      "datetime_create": "2021-10-21T21:12:13.809017+07:00",
      "datetime_update": "2021-10-21T21:12:13.809057+07:00",
      "datetime_publish": null,
      "created_by": {
        "id": 1,
        "name": " None ",
        "image": null
      },
      "label": null,
      "is_display": false,
      "count_view": 0,
      "datetime_update_material": null,
      "progress": null
    },
    {
      "id": 153,
      "code": "CARD00123",
      "image": "https://develop.conicle.co/media/flash_card/2021/10/2caa443b-f35.png",
      "name": "Untitled - 01",
      "desc": null,
      "content_type": {
        "id": 379,
        "code": "flashcard.flashcard"
      },
      "tag_list": [],
      "instructor_list": null,
      "category": null,
      "provider": null,
      "datetime_create": "2021-10-21T21:00:33.069577+07:00",
      "datetime_update": "2021-10-21T21:00:33.069614+07:00",
      "datetime_publish": null,
      "created_by": {
        "id": 1,
        "name": " None ",
        "image": null
      },
      "label": null,
      "is_display": false,
      "count_view": 0,
      "datetime_update_material": null,
      "progress": null
    },
    {
      "id": 152,
      "code": "CARD00122",
      "image": "https://develop.conicle.co/media/flash_card/2021/10/c7fef8a6-107.png",
      "name": "Untitled - 01",
      "desc": null,
      "content_type": {
        "id": 379,
        "code": "flashcard.flashcard"
      },
      "tag_list": [],
      "instructor_list": null,
      "category": null,
      "provider": null,
      "datetime_create": "2021-10-21T20:40:38.991677+07:00",
      "datetime_update": "2021-10-21T20:40:38.991713+07:00",
      "datetime_publish": null,
      "created_by": {
        "id": 1,
        "name": " None ",
        "image": null
      },
      "label": null,
      "is_display": false,
      "count_view": 0,
      "datetime_update_material": null,
      "progress": null
    },
    {
      "id": 151,
      "code": "CARD00121",
      "image": "https://develop.conicle.co/media/flash_card/2021/10/4038322d-28d.png",
      "name": "Untitled - 01",
      "desc": null,
      "content_type": {
        "id": 379,
        "code": "flashcard.flashcard"
      },
      "tag_list": [],
      "instructor_list": null,
      "category": null,
      "provider": null,
      "datetime_create": "2021-10-21T20:35:16.890632+07:00",
      "datetime_update": "2021-10-21T20:35:16.890702+07:00",
      "datetime_publish": null,
      "created_by": {
        "id": 1,
        "name": " None ",
        "image": null
      },
      "label": null,
      "is_display": false,
      "count_view": 0,
      "datetime_update_material": null,
      "progress": null
    },
    {
      "id": 150,
      "code": "CARD00120",
      "image": "https://develop.conicle.co/media/flash_card/2021/10/8947b632-d1f.png",
      "name": "Untitled - 01",
      "desc": null,
      "content_type": {
        "id": 379,
        "code": "flashcard.flashcard"
      },
      "tag_list": [],
      "instructor_list": null,
      "category": null,
      "provider": null,
      "datetime_create": "2021-10-21T20:25:30.543786+07:00",
      "datetime_update": "2021-10-21T20:25:30.543822+07:00",
      "datetime_publish": null,
      "created_by": {
        "id": 1,
        "name": " None ",
        "image": null
      },
      "label": null,
      "is_display": false,
      "count_view": 0,
      "datetime_update_material": null,
      "progress": null
    },
    {
      "id": 149,
      "code": "CARD00119",
      "image": "https://develop.conicle.co/media/flash_card/2021/10/5119d5e8-870.png",
      "name": "Untitled - 01",
      "desc": null,
      "content_type": {
        "id": 379,
        "code": "flashcard.flashcard"
      },
      "tag_list": [],
      "instructor_list": null,
      "category": null,
      "provider": null,
      "datetime_create": "2021-10-21T20:10:15.666144+07:00",
      "datetime_update": "2021-10-21T20:10:15.666201+07:00",
      "datetime_publish": null,
      "created_by": {
        "id": 1,
        "name": " None ",
        "image": null
      },
      "label": null,
      "is_display": false,
      "count_view": 0,
      "datetime_update_material": null,
      "progress": null
    },
    {
      "id": 148,
      "code": "CARD00118",
      "image": "https://develop.conicle.co/media/flash_card/2021/10/891bd9ba-591.png",
      "name": "Untitled - 01",
      "desc": null,
      "content_type": {
        "id": 379,
        "code": "flashcard.flashcard"
      },
      "tag_list": [],
      "instructor_list": null,
      "category": null,
      "provider": null,
      "datetime_create": "2021-10-21T20:00:03.667802+07:00",
      "datetime_update": "2021-10-21T20:00:03.667842+07:00",
      "datetime_publish": null,
      "created_by": {
        "id": 1,
        "name": " None ",
        "image": null
      },
      "label": null,
      "is_display": false,
      "count_view": 0,
      "datetime_update_material": null,
      "progress": null
    },
    {
      "id": 147,
      "code": "CARD00117",
      "image": "https://develop.conicle.co/media/flash_card/2021/10/01b9bc3f-892.png",
      "name": "Untitled - 01",
      "desc": null,
      "content_type": {
        "id": 379,
        "code": "flashcard.flashcard"
      },
      "tag_list": [],
      "instructor_list": null,
      "category": null,
      "provider": null,
      "datetime_create": "2021-10-21T19:47:35.206944+07:00",
      "datetime_update": "2021-10-21T19:47:35.206982+07:00",
      "datetime_publish": null,
      "created_by": {
        "id": 1,
        "name": " None ",
        "image": null
      },
      "label": null,
      "is_display": false,
      "count_view": 0,
      "datetime_update_material": null,
      "progress": null
    },
    {
      "id": 146,
      "code": "CARD00116",
      "image": "https://develop.conicle.co/media/flash_card/2021/10/0efcb20c-5ca.png",
      "name": "Untitled - 01",
      "desc": null,
      "content_type": {
        "id": 379,
        "code": "flashcard.flashcard"
      },
      "tag_list": [],
      "instructor_list": null,
      "category": null,
      "provider": null,
      "datetime_create": "2021-10-21T19:42:21.184804+07:00",
      "datetime_update": "2021-10-21T19:42:21.184858+07:00",
      "datetime_publish": null,
      "created_by": {
        "id": 1,
        "name": " None ",
        "image": null
      },
      "label": null,
      "is_display": false,
      "count_view": 0,
      "datetime_update_material": null,
      "progress": null
    },
    {
      "id": 145,
      "code": "CARD00115",
      "image": "https://develop.conicle.co/media/flash_card/2021/10/470531be-dc8.png",
      "name": "Untitled - 01",
      "desc": null,
      "content_type": {
        "id": 379,
        "code": "flashcard.flashcard"
      },
      "tag_list": [],
      "instructor_list": null,
      "category": null,
      "provider": null,
      "datetime_create": "2021-10-21T18:56:09.958658+07:00",
      "datetime_update": "2021-10-21T18:56:09.958706+07:00",
      "datetime_publish": null,
      "created_by": {
        "id": 1,
        "name": " None ",
        "image": null
      },
      "label": null,
      "is_display": false,
      "count_view": 0,
      "datetime_update_material": null,
      "progress": null
    },
    {
      "id": 144,
      "code": "CARD00114",
      "image": "https://develop.conicle.co/media/flash_card/2021/10/4eaf90d4-528.png",
      "name": "Untitled - 01",
      "desc": null,
      "content_type": {
        "id": 379,
        "code": "flashcard.flashcard"
      },
      "tag_list": [],
      "instructor_list": null,
      "category": null,
      "provider": null,
      "datetime_create": "2021-10-21T18:30:46.380605+07:00",
      "datetime_update": "2021-10-21T18:30:46.380639+07:00",
      "datetime_publish": null,
      "created_by": {
        "id": 1,
        "name": " None ",
        "image": null
      },
      "label": null,
      "is_display": false,
      "count_view": 0,
      "datetime_update_material": null,
      "progress": null
    }
  ]
}
